<?xml version="1.0" encoding="UTF-8"?>
<!DOCTYPE svg PUBLIC "-//W3C//DTD SVG 1.1//EN" "http://www.w3.org/Graphics/SVG/1.1/DTD/svg11.dtd">
<svg version="1.2" width="2000mm" height="1200mm" viewBox="0 0 200000 120000" preserveAspectRatio="xMidYMid" fill-rule="evenodd" stroke-width="28.222" stroke-linejoin="round" xmlns="http://www.w3.org/2000/svg" xmlns:ooo="http://xml.openoffice.org/svg/export" xmlns:xlink="http://www.w3.org/1999/xlink" xmlns:presentation="http://sun.com/xmlns/staroffice/presentation" xmlns:smil="http://www.w3.org/2001/SMIL20/" xmlns:anim="urn:oasis:names:tc:opendocument:xmlns:animation:1.0" xml:space="preserve">
 <defs class="ClipPathGroup">
  <clipPath id="presentation_clip_path" clipPathUnits="userSpaceOnUse">
   <rect x="0" y="0" width="200000" height="120000"/>
  </clipPath>
  <clipPath id="presentation_clip_path_shrink" clipPathUnits="userSpaceOnUse">
   <rect x="200" y="120" width="199600" height="119760"/>
  </clipPath>
 </defs>
 <defs class="TextShapeIndex">
  <g ooo:slide="id1" ooo:id-list="id3 id4 id5 id6"/>
 </defs>
 <defs class="EmbeddedBulletChars">
  <g id="bullet-char-template-57356" transform="scale(0.00048828125,-0.00048828125)">
   <path d="M 580,1141 L 1163,571 580,0 -4,571 580,1141 Z"/>
  </g>
  <g id="bullet-char-template-57354" transform="scale(0.00048828125,-0.00048828125)">
   <path d="M 8,1128 L 1137,1128 1137,0 8,0 8,1128 Z"/>
  </g>
  <g id="bullet-char-template-10146" transform="scale(0.00048828125,-0.00048828125)">
   <path d="M 174,0 L 602,739 174,1481 1456,739 174,0 Z M 1358,739 L 309,1346 659,739 1358,739 Z"/>
  </g>
  <g id="bullet-char-template-10132" transform="scale(0.00048828125,-0.00048828125)">
   <path d="M 2015,739 L 1276,0 717,0 1260,543 174,543 174,936 1260,936 717,1481 1274,1481 2015,739 Z"/>
  </g>
  <g id="bullet-char-template-10007" transform="scale(0.00048828125,-0.00048828125)">
   <path d="M 0,-2 C -7,14 -16,27 -25,37 L 356,567 C 262,823 215,952 215,954 215,979 228,992 255,992 264,992 276,990 289,987 310,991 331,999 354,1012 L 381,999 492,748 772,1049 836,1024 860,1049 C 881,1039 901,1025 922,1006 886,937 835,863 770,784 769,783 710,716 594,584 L 774,223 C 774,196 753,168 711,139 L 727,119 C 717,90 699,76 672,76 641,76 570,178 457,381 L 164,-76 C 142,-110 111,-127 72,-127 30,-127 9,-110 8,-76 1,-67 -2,-52 -2,-32 -2,-23 -1,-13 0,-2 Z"/>
  </g>
  <g id="bullet-char-template-10004" transform="scale(0.00048828125,-0.00048828125)">
   <path d="M 285,-33 C 182,-33 111,30 74,156 52,228 41,333 41,471 41,549 55,616 82,672 116,743 169,778 240,778 293,778 328,747 346,684 L 369,508 C 377,444 397,411 428,410 L 1163,1116 C 1174,1127 1196,1133 1229,1133 1271,1133 1292,1118 1292,1087 L 1292,965 C 1292,929 1282,901 1262,881 L 442,47 C 390,-6 338,-33 285,-33 Z"/>
  </g>
  <g id="bullet-char-template-9679" transform="scale(0.00048828125,-0.00048828125)">
   <path d="M 813,0 C 632,0 489,54 383,161 276,268 223,411 223,592 223,773 276,916 383,1023 489,1130 632,1184 813,1184 992,1184 1136,1130 1245,1023 1353,916 1407,772 1407,592 1407,412 1353,268 1245,161 1136,54 992,0 813,0 Z"/>
  </g>
  <g id="bullet-char-template-8226" transform="scale(0.00048828125,-0.00048828125)">
   <path d="M 346,457 C 273,457 209,483 155,535 101,586 74,649 74,723 74,796 101,859 155,911 209,963 273,989 346,989 419,989 480,963 531,910 582,859 608,796 608,723 608,648 583,586 532,535 482,483 420,457 346,457 Z"/>
  </g>
  <g id="bullet-char-template-8211" transform="scale(0.00048828125,-0.00048828125)">
   <path d="M -4,459 L 1135,459 1135,606 -4,606 -4,459 Z"/>
  </g>
  <g id="bullet-char-template-61548" transform="scale(0.00048828125,-0.00048828125)">
   <path d="M 173,740 C 173,903 231,1043 346,1159 462,1274 601,1332 765,1332 928,1332 1067,1274 1183,1159 1299,1043 1357,903 1357,740 1357,577 1299,437 1183,322 1067,206 928,148 765,148 601,148 462,206 346,322 231,437 173,577 173,740 Z"/>
  </g>
 </defs>
 <g>
  <g id="id2" class="Master_Slide">
   <g id="bg-id2" class="Background"/>
   <g id="bo-id2" class="BackgroundObjects"/>
  </g>
 </g>
 <g class="SlideGroup">
  <g>
   <g id="container-id1">
    <g id="id1" class="Slide" clip-path="url(#presentation_clip_path)">
     <g class="Page">
      <g class="com.sun.star.drawing.ClosedBezierShape">
       <g id="id3">
        <rect class="BoundingBox" stroke="none" fill="none" x="0" y="0" width="199564" height="120001"/>
        <path fill="rgb(245,245,239)" stroke="none" d="M 190373,5378 L 6607,16944 C 16362,39946 30416,96066 33459,114498 L 128321,108360 C 147665,70882 176649,26614 190373,5378 Z M 0,12483 L 199563,0 C 181293,27137 142093,90231 131076,113352 L 29739,120000 C 26935,99829 10874,38245 0,12483 Z"/>
       </g>
      </g>
      <g class="com.sun.star.drawing.ClosedBezierShape">
       <g id="id4">
        <rect class="BoundingBox" stroke="none" fill="none" x="76343" y="80639" width="55258" height="22363"/>
        <path fill="rgb(245,245,239)" stroke="none" d="M 77783,101199 C 78680,100047 79607,98161 80268,96783 81196,95038 82251,92221 83595,89310 85048,86248 87058,83662 88887,82312 89679,81738 92984,80502 94346,80652 98651,80643 102517,83003 106604,84494 108659,85247 110787,85675 112910,85679 117310,85689 121669,85087 125906,83417 127644,82806 129875,81983 131600,80882 L 131600,93848 C 131600,93848 128635,96679 127811,97512 126408,98937 124851,99764 122932,101034 120175,102431 116721,102920 114055,102934 112887,102868 111697,102544 110583,102149 108342,101354 106056,100352 104137,98584 101788,96519 99751,94314 96754,94342 93500,94436 92124,96519 90661,98612 89960,99567 88285,102638 88090,103000 L 76344,103000 C 76901,102436 77426,101688 77783,101199 Z"/>
       </g>
      </g>
      <g class="com.sun.star.drawing.ClosedBezierShape">
       <g id="id5">
        <rect class="BoundingBox" stroke="none" fill="none" x="85863" y="15899" width="45670" height="61627"/>
        <path fill="rgb(245,245,239)" stroke="none" d="M 119165,38823 C 119165,35935 118649,32798 116806,30658 115761,29440 114407,28707 112982,28269 111461,27804 109922,27799 108364,27804 105925,27808 103254,28683 101402,30527 99406,32516 98297,35817 98238,38808 L 119165,38823 Z M 128920,60197 L 128920,72937 C 128693,73040 127761,73511 127181,73798 125203,74701 123461,75420 121383,76017 113393,78312 104028,78444 96889,73153 91141,68893 87569,62064 86406,54460 86084,52390 85908,50297 85881,47781 85777,44720 86152,40116 86591,38216 87714,31834 90367,25734 94803,21483 97849,18563 101642,16743 105590,16141 107441,15859 109256,15891 111112,15915 115530,15971 120097,17942 123497,21097 124710,22226 125769,23501 126729,24902 129943,29581 131509,35737 131518,41630 L 131532,50589 97940,50603 C 97940,52724 98243,54972 98859,56976 99207,58114 99578,58946 100171,59948 103471,65535 110175,65591 115417,64806 116548,64636 117694,64411 118803,64100 120011,63757 121215,63414 122406,62990 124896,62257 128702,60268 128920,60197 Z"/>
       </g>
      </g>
      <g class="com.sun.star.drawing.ClosedBezierShape">
       <g id="id6">
        <rect class="BoundingBox" stroke="none" fill="none" x="35790" y="15975" width="43246" height="86955"/>
        <path fill="rgb(245,245,239)" stroke="none" d="M 74298,34641 C 66960,30869 61583,27117 55313,30131 53797,30954 50031,33503 50243,39400 50357,45669 54535,49272 56694,50480 59876,52474 62004,53269 65417,55258 68974,57295 74927,61198 77032,66978 78888,71027 80635,81928 76498,90605 73216,97344 68653,100001 64280,101506 57649,103670 51909,102781 48885,102564 43576,101836 39189,100359 35790,98275 L 35790,83697 C 40629,86297 46867,88432 53756,88385 58862,88028 61325,87040 63543,84252 65340,82084 65729,79643 65154,76031 64244,71733 62121,69565 58183,67081 53421,64349 51031,63757 47116,60756 41887,56787 35976,51764 35790,38714 35890,28767 40498,23237 44843,20072 50298,16004 57273,15797 60664,16046 65457,16088 73673,18336 79024,21398 L 74298,34641 Z"/>
       </g>
      </g>
     </g>
    </g>
   </g>
  </g>
 </g>
</svg>