<svg viewBox="0 0 1000 200" preserveAspectRatio="none" style="width: 0; height: 0; position: absolute;">
  <defs>
    <clipPath id="nav-shape" clipPathUnits="objectBoundingBox" transform="scale(0.001 0.005)">
      <path
         d="
         M 0 136
         Q 0 129, 16 129
         L 781 107
         Q 977 100, 988 28
         Q 992 4, 1000 0
         v 200 h -1000 Z"/>
    </clipPath>
  </defs>
</svg>
