<?xml version="1.0" encoding="UTF-8" standalone="no"?>
<svg
   xmlns:dc="http://purl.org/dc/elements/1.1/"
   xmlns:cc="http://creativecommons.org/ns#"
   xmlns:rdf="http://www.w3.org/1999/02/22-rdf-syntax-ns#"
   xmlns:svg="http://www.w3.org/2000/svg"
   xmlns="http://www.w3.org/2000/svg"
   xmlns:xlink="http://www.w3.org/1999/xlink"
   id="svg5440"
   version="1.1"
   viewBox="0 0 26.458334 26.458334"
   height="100"
   width="100">
  <defs
     id="defs5434">
    <linearGradient
       id="Secondary-Primary-dark">
      <stop
         style="stop-color:#03e2da;stop-opacity:1"
         offset="0"
         id="stop6141" />
      <stop
         style="stop-color:#265949;stop-opacity:1"
         offset="1"
         id="stop6143" />
    </linearGradient>
    <linearGradient
       id="linearGradient6111">
      <stop
         id="stop6107"
         offset="0"
         style="stop-color:#03e2da;stop-opacity:1" />
      <stop
         id="stop6109"
         offset="1"
         style="stop-color:#45a084;stop-opacity:1" />
    </linearGradient>
    <linearGradient
       id="Primary_contrast">
      <stop
         style="stop-color:#295f4e;stop-opacity:1;"
         offset="0"
         id="stop2529" />
      <stop
         style="stop-color:#02847f;stop-opacity:1"
         offset="1"
         id="stop2531" />
    </linearGradient>
    <linearGradient
       gradientUnits="userSpaceOnUse"
       y2="177.33765"
       x2="150.60909"
       y1="177.33765"
       x1="40.854465"
       id="linearGradient6089"
       xlink:href="#Primary_contrast" />
    <linearGradient
       gradientUnits="userSpaceOnUse"
       y2="664.30066"
       x2="113.53157"
       y1="645.40417"
       x1="82.19976"
       id="linearGradient6105"
       xlink:href="#Secondary-Primary-dark" />
    <linearGradient
       gradientUnits="userSpaceOnUse"
       y2="186.22321"
       x2="86.352455"
       y1="138.30185"
       x1="0.76499921"
       id="linearGradient6129"
       xlink:href="#linearGradient6111" />
    <linearGradient
       y2="207.29153"
       x2="124.66935"
       y1="146.85439"
       x1="29.587234"
       gradientUnits="userSpaceOnUse"
       id="linearGradient6133"
       xlink:href="#Secondary-Primary-dark" />
    <linearGradient
       y2="181.61392"
       x2="154.97609"
       y1="154.24579"
       x1="92.385132"
       gradientUnits="userSpaceOnUse"
       id="linearGradient6137"
       xlink:href="#Secondary-Primary-dark" />
    <linearGradient
       y2="193.45181"
       x2="150.60909"
       y1="142.3318"
       x1="47.27742"
       gradientUnits="userSpaceOnUse"
       id="linearGradient6139"
       xlink:href="#Primary_contrast" />
    <linearGradient
       y2="177.33765"
       x2="150.60909"
       y1="177.33765"
       x1="40.854465"
       gradientUnits="userSpaceOnUse"
       id="linearGradient6910"
       xlink:href="#Primary_contrast" />
    <linearGradient
       y2="177.33765"
       x2="150.60909"
       y1="177.33765"
       x1="40.854465"
       gradientUnits="userSpaceOnUse"
       id="linearGradient6912"
       xlink:href="#Primary_contrast" />
    <linearGradient
       y2="177.33765"
       x2="150.60909"
       y1="177.33765"
       x1="40.854465"
       gradientUnits="userSpaceOnUse"
       id="linearGradient6914"
       xlink:href="#Primary_contrast" />
    <linearGradient
       y2="177.33765"
       x2="150.60909"
       y1="177.33765"
       x1="40.854465"
       gradientUnits="userSpaceOnUse"
       id="linearGradient6916"
       xlink:href="#Primary_contrast" />
  </defs>
  <metadata
     id="metadata5437">
    <rdf:RDF>
      <cc:Work
         rdf:about="">
        <dc:format>image/svg+xml</dc:format>
        <dc:type
           rdf:resource="http://purl.org/dc/dcmitype/StillImage" />
        <dc:title></dc:title>
      </cc:Work>
    </rdf:RDF>
  </metadata>
  <g
     transform="translate(-59.627195,-9.613791)"
     id="layer1">
    <g
       id="layer1-9-6"
       transform="matrix(0.99945129,0,0,1.0206598,143.20725,108.75021)"
       style="display:inline;fill:#ffffff;stroke:#ffffff">
      <g
         style="fill:#ffffff;stroke:#ffffff"
         id="g1081-0"
         transform="matrix(0.06050068,0,0,0.06251127,-86.378536,-81.783242)">
        <g
           transform="matrix(7.9681977,0,0,7.7119114,-660.02495,-4877.2037)"
           id="g4948"
           style="display:inline">
          <ellipse
             ry="26.886305"
             rx="27.456837"
             cy="627.47723"
             cx="115.99905"
             id="path953"
             style="opacity:1;fill:#ffffff;fill-opacity:1;fill-rule:nonzero;stroke:#ffffff;stroke-width:0.81510222;stroke-miterlimit:4;stroke-dasharray:none;stroke-opacity:1" />
          <g
             style="fill:url(#linearGradient6089);fill-opacity:1;stroke:none;stroke-width:1.87151361;stroke-miterlimit:4;stroke-dasharray:none"
             id="g4861"
             transform="matrix(0.42563873,0,0,0.46977148,75.251901,544.16907)">
            <text
               transform="scale(1.0167365,0.98353899)"
               id="text4839"
               y="185.92416"
               x="106.95061"
               style="font-style:normal;font-variant:normal;font-weight:normal;font-stretch:normal;font-size:63.37706375px;line-height:1.25;font-family:monospace;-inkscape-font-specification:monospace;letter-spacing:0px;word-spacing:0px;fill:url(#linearGradient6910);fill-opacity:1;stroke:none;stroke-width:1.87151361;stroke-miterlimit:4;stroke-dasharray:none;stroke-opacity:1"
               xml:space="preserve"><tspan
                 style="font-style:normal;font-variant:normal;font-weight:normal;font-stretch:normal;font-family:monospace;-inkscape-font-specification:monospace;fill:url(#linearGradient6910);fill-opacity:1;stroke:none;stroke-width:1.87151361;stroke-miterlimit:4;stroke-dasharray:none;stroke-opacity:1"
                 y="241.99802"
                 x="106.95061"
                 id="tspan4837" /></text>
            <text
               xml:space="preserve"
               style="font-style:normal;font-variant:normal;font-weight:normal;font-stretch:normal;font-size:42.4895401px;line-height:3.25;font-family:monospace;-inkscape-font-specification:monospace;letter-spacing:0px;word-spacing:0px;fill:url(#linearGradient6912);fill-opacity:1;stroke:none;stroke-width:1.87151361;stroke-miterlimit:4;stroke-dasharray:none"
               x="-64.936188"
               y="198.23524"
               id="text4843"
               transform="scale(1.0505656,0.95186822)"><tspan
                 id="tspan4841"
                 x="-64.936188"
                 y="278.31805"
                 style="fill:url(#linearGradient6912);fill-opacity:1;stroke:none;stroke-width:1.87151361;stroke-miterlimit:4;stroke-dasharray:none" /></text>
            <text
               xml:space="preserve"
               style="font-style:normal;font-variant:normal;font-weight:normal;font-stretch:normal;font-size:42.4895401px;line-height:3.25;font-family:monospace;-inkscape-font-specification:monospace;letter-spacing:0px;word-spacing:0px;fill:url(#linearGradient6914);fill-opacity:1;stroke:none;stroke-width:1.87151361;stroke-miterlimit:4;stroke-dasharray:none"
               x="-62.700726"
               y="230.64948"
               id="text4847"
               transform="scale(1.0505656,0.95186822)"><tspan
                 id="tspan4845"
                 x="-62.700726"
                 y="310.7323"
                 style="fill:url(#linearGradient6914);fill-opacity:1;stroke:none;stroke-width:1.87151361;stroke-miterlimit:4;stroke-dasharray:none" /></text>
            <g
               id="g4859"
               style="fill:url(#linearGradient6916);fill-opacity:1;stroke:none;stroke-width:1.87151361">
              <path
                 style="font-style:normal;font-weight:normal;font-size:192px;line-height:1.25;font-family:sans-serif;letter-spacing:0px;word-spacing:0px;fill:url(#linearGradient6139);fill-opacity:1;stroke:none;stroke-width:1.87151361;stroke-miterlimit:4;stroke-dasharray:none;stroke-opacity:1"
                 id="path4849"
                 d="m 150.60908,193.45182 v 10.51549 c -2.50777,1.31281 -4.69093,3.40498 -9.12376,5.39304 -2.13723,1.00558 -7.9184,1.90057 -11.76328,1.72394 -4.75338,-0.38542 -10.68156,-2.62517 -13.42416,-4.55877 -3.72876,-1.99218 -5.71951,-2.82588 -9.37776,-1.97251 -2.02492,0.14419 -4.43399,1.80336 -8.216118,6.42276 l -14.309592,0.0835 c 3.597055,-2.83887 4.151692,-3.7273 7.469555,-9.00304 2.541894,-4.04187 4.444558,-5.69074 7.692263,-7.46148 5.370362,-1.95505 9.532342,-1.68933 16.571192,0.36477 6.81019,2.03439 8.70667,2.34039 14.84591,2.3547 4.39338,-0.27676 8.74162,-0.22456 16.83549,-2.74604 z" />
              <text
                 transform="scale(1.0505656,0.95186822)"
                 id="text4853"
                 y="199.59067"
                 x="97.85804"
                 style="font-style:normal;font-variant:normal;font-weight:bold;font-stretch:normal;font-size:80.17842102px;line-height:3.25;font-family:monospace;-inkscape-font-specification:'monospace, Bold';font-variant-ligatures:normal;font-variant-caps:normal;font-variant-numeric:normal;font-feature-settings:normal;text-align:start;letter-spacing:0px;word-spacing:0px;writing-mode:lr-tb;text-anchor:start;fill:url(#linearGradient6137);fill-opacity:1;stroke:none;stroke-width:1.8715322;stroke-miterlimit:4;stroke-dasharray:none"
                 xml:space="preserve"><tspan
                   style="font-style:normal;font-variant:normal;font-weight:bold;font-stretch:normal;font-size:80.17842102px;font-family:monospace;-inkscape-font-specification:'monospace, Bold';font-variant-ligatures:normal;font-variant-caps:normal;font-variant-numeric:normal;font-feature-settings:normal;text-align:start;writing-mode:lr-tb;text-anchor:start;fill:url(#linearGradient6137);fill-opacity:1;stroke:none;stroke-width:1.8715322;stroke-miterlimit:4;stroke-dasharray:none"
                   y="199.59067"
                   x="97.85804"
                   id="tspan4851">e</tspan></text>
              <text
                 transform="scale(1.0505656,0.95186822)"
                 id="text4857"
                 y="220.29288"
                 x="32.99271"
                 style="font-style:normal;font-variant:normal;font-weight:bold;font-stretch:normal;font-size:93.59448242px;line-height:3.25;font-family:monospace;-inkscape-font-specification:'monospace, Bold';font-variant-ligatures:normal;font-variant-caps:normal;font-variant-numeric:normal;font-feature-settings:normal;text-align:start;letter-spacing:0px;word-spacing:0px;writing-mode:lr-tb;text-anchor:start;fill:url(#linearGradient6133);fill-opacity:1;fill-rule:nonzero;stroke:none;stroke-width:1.86934245;stroke-miterlimit:4;stroke-dasharray:none;stroke-opacity:1"
                 xml:space="preserve"><tspan
                   style="font-style:normal;font-variant:normal;font-weight:bold;font-stretch:normal;font-size:93.59448242px;font-family:monospace;-inkscape-font-specification:'monospace, Bold';font-variant-ligatures:normal;font-variant-caps:normal;font-variant-numeric:normal;font-feature-settings:normal;text-align:start;writing-mode:lr-tb;text-anchor:start;fill:url(#linearGradient6133);fill-opacity:1;fill-rule:nonzero;stroke:none;stroke-width:1.86934245;stroke-miterlimit:4;stroke-dasharray:none;stroke-opacity:1"
                   y="220.29288"
                   x="32.99271"
                   id="tspan4855">S</tspan></text>
            </g>
          </g>
        </g>
      </g>
    </g>
  </g>
</svg>
