<?xml version="1.0" encoding="UTF-8" standalone="no"?>
<svg
   xmlns:dc="http://purl.org/dc/elements/1.1/"
   xmlns:cc="http://creativecommons.org/ns#"
   xmlns:rdf="http://www.w3.org/1999/02/22-rdf-syntax-ns#"
   xmlns:svg="http://www.w3.org/2000/svg"
   xmlns="http://www.w3.org/2000/svg"
   id="svg1904"
   version="1.1"
   viewBox="0 0 13.92098 13.92099"
   height="52.614765"
   width="52.614727">
  <defs
     id="defs1898" />
  <metadata
     id="metadata1901">
    <rdf:RDF>
      <cc:Work
         rdf:about="">
        <dc:format>image/svg+xml</dc:format>
        <dc:type
           rdf:resource="http://purl.org/dc/dcmitype/StillImage" />
        <dc:title></dc:title>
      </cc:Work>
    </rdf:RDF>
  </metadata>
  <path
     class="header-icon-body"
     id="circle5238"
     d="M 6.96049,0 A 6.9604938,6.9604938 0 0 0 0,6.96049 6.9604938,6.9604938 0 0 0 6.96049,13.92099 6.9604938,6.9604938 0 0 0 13.92098,6.96049 6.9604938,6.9604938 0 0 0 6.96049,0 Z m 0,1.16008 A 5.8004117,5.8004117 0 0 1 12.7609,6.96049 5.8004117,5.8004117 0 0 1 6.96049,12.76091 5.8004117,5.8004117 0 0 1 1.16008,6.96049 5.8004117,5.8004117 0 0 1 6.96049,1.16008 Z M 5.23441,4.7441 C 4.94114,4.7441 4.66064,4.8 4.39335,4.91132 4.12607,5.01898 3.8906,5.17089 3.68643,5.36765 3.48597,5.56069 3.32451,5.7927 3.202,6.06369 3.08321,6.33098 3.02346,6.6262 3.02346,6.94916 c 0,0.32297 0.0615,0.62164 0.18398,0.89635 0.12251,0.27099 0.28397,0.50692 0.48443,0.70738 0.20417,0.19674 0.43791,0.35085 0.70148,0.46222 0.26729,0.10765 0.54562,0.16132 0.83517,0.16132 0.14107,0 0.28436,-0.0147 0.42914,-0.0444 0.14478,-0.026 0.30061,-0.0689 0.46766,-0.12824 l 0.11102,-0.039 V 7.67329 C 5.95792,7.97027 5.64454,8.11874 5.29559,8.11874 5.13596,8.11874 4.98749,8.08884 4.85014,8.02944 4.71278,7.97004 4.59201,7.88823 4.48806,7.78428 4.38783,7.68034 4.30819,7.55784 4.2488,7.41677 4.1931,7.2757 4.165,7.1216 4.165,6.95455 4.165,6.79121 4.1932,6.63928 4.2488,6.49822 4.3082,6.35715 4.38783,6.23638 4.48806,6.13615 4.5883,6.03221 4.70689,5.95036 4.84425,5.89099 c 0.14106,-0.0594 0.29344,-0.0888 0.45678,-0.0888 0.37122,0 0.68288,0.1541 0.93531,0.46222 V 4.96113 C 6.05816,4.88693 5.88762,4.83322 5.72428,4.79981 5.56465,4.76261 5.40147,4.74411 5.23441,4.74411 Z m 1.25797,0.11692 1.7655,4.1985 h 0.8687 l 1.77048,-4.1985 H 9.71115 L 8.692,7.41682 7.67874,4.86102 Z"
     style="opacity:1;fill-opacity:1;stroke:none;stroke-width:1.16008234;stroke-linecap:round;stroke-miterlimit:4;stroke-dasharray:none;stroke-dashoffset:0;stroke-opacity:1" />
</svg>
