<?xml version="1.0" encoding="UTF-8" standalone="no"?>
<svg
   xmlns:dc="http://purl.org/dc/elements/1.1/"
   xmlns:cc="http://creativecommons.org/ns#"
   xmlns:rdf="http://www.w3.org/1999/02/22-rdf-syntax-ns#"
   xmlns:svg="http://www.w3.org/2000/svg"
   xmlns="http://www.w3.org/2000/svg"
   width="53.225719"
   height="53.225719"
   viewBox="0 0 14.082638 14.082639"
   version="1.1"
   id="svg1904">
  <defs
     id="defs1898" />
  <metadata
     id="metadata1901">
    <rdf:RDF>
      <cc:Work
         rdf:about="">
        <dc:format>image/svg+xml</dc:format>
        <dc:type
           rdf:resource="http://purl.org/dc/dcmitype/StillImage" />
        <dc:title></dc:title>
      </cc:Work>
    </rdf:RDF>
  </metadata>
  <path
     id="circle5185"
     d="M 7.0413192,0 A 7.0413192,7.0413192 0 0 0 0,7.0413192 7.0413192,7.0413192 0 0 0 7.0413192,14.082638 7.0413192,7.0413192 0 0 0 14.082639,7.0413192 7.0413192,7.0413192 0 0 0 7.0413192,0 Z m 0,1.1735532 A 5.8677777,5.8677768 0 0 1 12.909086,7.0413192 5.8677777,5.8677768 0 0 1 7.0413192,12.909085 5.8677777,5.8677768 0 0 1 1.1735532,7.0413192 5.8677777,5.8677768 0 0 1 7.0413192,1.1735532 Z M 4.847324,3.8314657 A 0.75174861,0.70405972 0 0 0 4.1184371,4.5493517 0.75174861,0.70405972 0 0 0 4.8775805,5.2392719 0.75174861,0.70405972 0 0 0 5.6215945,4.53514 L 5.621125,4.5071766 A 0.75174861,0.70405972 0 0 0 4.8473146,3.8314657 Z m 3.9309455,1.8529326 v 4.694e-4 C 8.5929889,5.689116 8.4366716,5.724731 8.291428,5.7815943 8.1017231,5.8558427 7.9309547,5.9661496 7.8197136,6.0740649 7.7216632,6.1691884 7.6702757,6.2622066 7.6239696,6.3550769 V 5.7815943 H 6.2954698 V 9.8179742 H 7.6239696 V 7.4117325 c 0.010233,-0.068822 0.03216,-0.1713834 0.099935,-0.2810097 0.082775,-0.1338015 0.2328658,-0.2752123 0.4061597,-0.3373965 0.1732939,-0.062142 0.3698031,-0.045149 0.5212219,0.033005 0.1514189,0.078135 0.2591652,0.2191681 0.3158502,0.3763632 0.056687,0.1571927 0.06347,0.3315569 0.069681,0.5060948 L 9.0212326,9.8179742 H 10.375403 V 7.7087893 c 0,0 -0.0052,-0.6116794 -0.08664,-0.9182139 C 10.20731,6.484048 10.041687,6.1766757 9.7959606,5.9832976 9.5502356,5.7899195 9.2243535,5.7106671 8.9570556,5.6899093 c -0.033418,-0.00265 -0.065975,-0.00472 -0.097644,-0.00549 -0.027766,-7.042e-4 -0.054704,-7.042e-4 -0.081139,0 z M 4.2096621,5.7811249 V 9.8175048 H 5.5377042 V 5.7811249 Z"
     style="opacity:1;fill-opacity:1;stroke:none;stroke-width:1.17355335;stroke-linecap:round;stroke-miterlimit:4;stroke-dasharray:none;stroke-dashoffset:0;stroke-opacity:1"
     class="header-icon-body" />
</svg>
